Classification of Ambiguous Treatments
…
  filter(!(Brnd_Name == "Buprenorphine" | Brnd_Name == "Buprenorphine Hcl")) |>
  # compute summary statistics by grouping
  group_by(Gnrc_Name) |> 
  summarise(
    n_oud = sum(bup_oud),
    n_pain = sum(bup_pain),
    n_ambig = sum(bup_ambig),
    n = n()
  )
# display top 100
drug_freq |> 
  arrange(desc(n)) |> 
  head(100)

# A tibble: 100 × 5
   Gnrc_Name                       n_oud n_pain n_ambig      n
   <chr>                           <int>  <int>   <int>  <int>
 1 Buprenorphine Hcl/Naloxone Hcl 147026   6548   43225 147026
 2 Gabapentin                      72336  42627   42398 123653
 3 Oxycodone Hcl                   51662  60051   48102 119308
 4 Albuterol Sulfate               67063  26808   28373 103325
 5 Bupropion Hcl                   68832  21479   29574  97909
 6 Tramadol Hcl                    42371  47663   38442  97777
 7 Duloxetine Hcl                  55374  35196   33976  97665
 8 Metformin Hcl                   62366  24110   26078  95787
 9 Levothyroxine Sodium            59981  25850   27672  95775
10 Morphine Sulfate                34665  50362   39188  90650
# ℹ 90 more rows
…
    n_pain = signif(1000*n_pain/N_pain, 3),
    n_ambig = signif(1000*n_ambig/N_ambig, 3),
    n = signif(1000*n/N, 3)
  ) |> 
  # add contrasts columns for OUD vs pain
  mutate(
    contrast = signif((n_oud-n_pain)/(n_oud+n_pain), 3),
    w_contrast = signif(n_ambig*(n_oud-n_pain)/(n_oud+n_pain), 3)
  )
# display top 100
drug_freq |> 
  arrange(desc(abs(w_contrast))) |> 
  head(100)

# A tibble: 100 × 7
   Gnrc_Name                      n_oud n_pain n_ambig     n contrast w_contrast
   <chr>                          <dbl>  <dbl>   <dbl> <dbl>    <dbl>      <dbl>
 1 Buprenorphine Hcl/Naloxone Hcl 27.9    2.06   15.3  16       0.862      13.2 
 2 Morphine Sulfate                6.59  15.9    13.9   9.88   -0.414      -5.75
 3 Oxycodone Hcl                   9.82  18.9    17.1  13      -0.316      -5.41
 4 Tramadol Hcl                    8.05  15      13.6  10.7    -0.302      -4.1 
 5 Diclofenac Sodium               6.16  12.6    10.3   8.47   -0.343      -3.54
 6 Pregabalin                      7.25  12.8    12.7   9.34   -0.277      -3.52
 7 Oxycodone Hcl/Acetaminophen     7.35  13.4    11.5   9.46   -0.292      -3.35
 8 Bupropion Hcl                  13.1    6.77   10.5  10.7     0.319       3.34
 9 Fentanyl                        3.55   9.52    7.28  5.7    -0.457      -3.33
10 Quetiapine Fumarate            11      4.74    7.97  8.45    0.398       3.17
# ℹ 90 more rows
…
    n_pain = signif(1000*n_pain/N_pain, 3),
    n_ambig = signif(1000*n_ambig/N_ambig, 3),
    n = signif(1000*n/N, 3)
  ) |> 
  # add contrasts columns for OUD vs pain
  mutate(
    contrast = signif((n_oud-n_pain)/(n_oud+n_pain), 3),
    w_contrast = signif(n_ambig*(n_oud-n_pain)/(n_oud+n_pain), 3)
  )
# display top 100
brnd_freq |> 
  arrange(desc(abs(w_contrast))) |> 
  head(100)

# A tibble: 100 × 7
   Brnd_Name               n_oud n_pain n_ambig     n contrast w_contrast
   <chr>                   <dbl>  <dbl>   <dbl> <dbl>    <dbl>      <dbl>
 1 Suboxone                13.6   0.853    6.91  7.8     0.882       6.09
 2 Buprenorphine-Naloxone  12.4   0.97     6.91  7.13    0.855       5.91
 3 Fentanyl                 3.42  9.13     7.04  5.5    -0.455      -3.2 
 4 Morphine Sulfate Er      4.3   9.36     8.36  6.15   -0.37       -3.1 
 5 Tizanidine Hcl           5.41 10.2      9.6   7.18   -0.307      -2.95
 6 Tramadol Hcl             7.5  12.2     11.2   9.31   -0.239      -2.67
 7 Oxycodone-Acetaminophen  6.19 10.7      9.96  7.87   -0.267      -2.66
 8 Oxycontin                3.13  7.71     6.23  4.69   -0.423      -2.63
 9 Baclofen                 5.22  9.48     8.86  6.79   -0.29       -2.57
10 Morphine Sulfate         2.16  6.05     5.25  3.51   -0.474      -2.49
# ℹ 90 more rows
…
