Dataset
…
[1] 810

Code
# view some missing entries to get some idea of what's going on:
data_fips |>
  filter(is.na(county_numeric)) |>  
  select(Prscrbr_NPI, Prscrbr_City, Prscrbr_State_Abrvtn) |>
  head(n = 100)

# A tibble: 100 × 3
   Prscrbr_NPI Prscrbr_City    Prscrbr_State_Abrvtn
         <dbl> <chr>           <chr>               
 1  1003109216 Shelby Township MI                  
 2  1003169947 Coeur D Alene   ID                  
 3  1003801713 St Petersburg   FL                  
 4  1003804485 Fleming Island  FL                  
 5  1003809450 Plains          PA                  
 6  1003809450 Plains          PA                  
 7  1003840034 Coeur D Alene   ID                  
 8  1003857178 Berlin          VT                  
 9  1003873662 Deltaville      VA                  
10  1003889544 St. Paul        MN                  
# ℹ 90 more rows
…
[1] 700

Code
# view some missing entries to get some idea of what's going on:
data_fips |> 
  filter(is.na(county_fips)) |>
  # select(Prscrbr_City, Prscrbr_State_Abrvtn, city_fixed) |>
  head(n = 100)

# A tibble: 100 × 28
   Prscrbr_NPI Prscrbr_Last_Org_Name Prscrbr_First_Name Prscrbr_City   
         <dbl> <chr>                 <chr>              <chr>          
 1  1003109216 Dimovski              Nikolas            Shelby Township
 2  1003857178 Felsted               Laura              Berlin         
 3  1003889544 Oakman                Scott              St. Paul       
 4  1003889544 Oakman                Scott              St. Paul       
 5  1003896101 Ong                   Warren             Johnston       
 6  1003966482 Toma                  Cornelius          Mercerville    
 7  1013127893 Moesner               Patricia           Brownstown Twp 
 8  1013972678 Morgan                Sarah              Hardwick       
 9  1013972678 Morgan                Sarah              Hardwick       
10  1013983865 Todd                  Kathleen           Mailtand       
# ℹ 90 more rows
# ℹ 24 more variables: Prscrbr_State_Abrvtn <chr>, Prscrbr_State_FIPS <chr>,
#   Prscrbr_Type <chr>, Prscrbr_Type_Src <chr>, Brnd_Name <chr>,
#   Gnrc_Name <chr>, Tot_Clms <dbl>, Tot_30day_Fills <dbl>,
#   Tot_Day_Suply <dbl>, Tot_Drug_Cst <dbl>, Tot_Benes <dbl>,
#   GE65_Sprsn_Flag <chr>, GE65_Tot_Clms <dbl>, GE65_Tot_30day_Fills <dbl>,
#   GE65_Tot_Drug_Cst <dbl>, GE65_Tot_Day_Suply <dbl>, …
…
Code
# view fips = 2063, or 11000:
data_nchsurc |> filter(fips == 2063|fips == 11000) |> head(n = 100)

# A tibble: 30 × 31
   Prscrbr_NPI Prscrbr_Last_Org_Name Prscrbr_First_Name Prscrbr_City
         <dbl> <chr>                 <chr>              <chr>       
 1  1639188683 Todd                  Kathleen           Valdez      
 2  1639188683 Todd                  Kathleen           Valdez      
 3  1639188683 Todd                  Kathleen           Valdez      
 4  1639188683 Todd                  Kathleen           Valdez      
 5  1639188683 Todd                  Kathleen           Valdez      
 6  1639188683 Todd                  Kathleen           Valdez      
 7  1639188683 Todd                  Kathleen           Valdez      
 8  1871698852 Spencer               Sarah              Valdez      
 9  1639188683 Todd                  Kathleen           Valdez      
10  1871698852 Spencer               Sarah              Valdez      
# ℹ 20 more rows
# ℹ 27 more variables: Prscrbr_State_Abrvtn <chr>, Prscrbr_State_FIPS <chr>,
#   Prscrbr_Type <chr>, Prscrbr_Type_Src <chr>, Brnd_Name <chr>,
#   Gnrc_Name <chr>, Tot_Clms <dbl>, Tot_30day_Fills <dbl>,
#   Tot_Day_Suply <dbl>, Tot_Drug_Cst <dbl>, Tot_Benes <dbl>,
#   GE65_Sprsn_Flag <chr>, GE65_Tot_Clms <dbl>, GE65_Tot_30day_Fills <dbl>,
#   GE65_Tot_Drug_Cst <dbl>, GE65_Tot_Day_Suply <dbl>, …
…
# test match ct_towns into 'places' dataset:
places <- left_join(
  places,                                       # the 'left' dataset
  ct_towns[c(1,6)],                           # the 'right' dataset; with Town.name, fips, and state_fips variables
  by = join_by(
        Prscrbr_City == Town.name                # these variables must exactly match in both datasets
        ),
  relationship = "many-to-one",                   # left_join will not work without specifying this relation
  multiple = "any",                             # randomly returns one of the matching rows in USGS dataset
)
places |> filter(is.na(ct_fips)) |> head(n = 100)

# A tibble: 37 × 6
# Groups:   Prscrbr_City, Prscrbr_State_Abrvtn, city_fixed [37]
   Prscrbr_City     Prscrbr_State_Abrvtn city_fixed        fips     n ct_fips
   <chr>            <chr>                <chr>            <dbl> <int>   <dbl>
 1 Willimantic      CT                   willimantic       9110    48      NA
 2 Mansfield Center CT                   mansfield center  9110    41      NA
 3 Dayville         CT                   dayville          9150    32      NA
 4 Danielson        CT                   danielson         9150    29      NA
 5 Storrs           CT                   storrs            9110    27      NA
 6 Rockville        CT                   rockville         9110    19      NA
 7 Amston           CT                   amston            9110    17      NA
 8 Pawcatuck        CT                   pawcatuck         9180    16      NA
 9 Old Greenwich    CT                   old greenwich     9150    15      NA
10 Mystic           CT                   mystic            9180    14      NA
# ℹ 27 more rows
…
Lookup rural-urban clssification: For this step we can use CDC’s 2013 Urban-Rural Classification Scheme for Counties; specifically the NCHSurbruralcodes Spreadsheet which contains the FIPS codes and rural-urban classifications for each county in the US.

The data can be plotted according to FIPS code using ggplot2 or MazamaSpatialPlots packages.

Provider Type

Overview of provider types

Code
data_nchsurc |> 
  group_by(Prscrbr_Type) |> 
  summarize(n = n()) |> 
  arrange(desc(n))

# A tibble: 142 × 2
   Prscrbr_Type                              n
   <chr>                                 <int>
 1 Family Practice                      121171
 2 Internal Medicine                     86597
 3 Nurse Practitioner                    68912
 4 Psychiatry                            46797
 5 Physician Assistant                   30662
 6 Anesthesiology                        23420
 7 Physical Medicine and Rehabilitation  21173
 8 Pain Management                       18414
 9 Interventional Pain Management        16163
10 Psychiatry & Neurology                 8243
# ℹ 132 more rows
…
`summarise()` has grouped output by 'Prscrbr_Type'. You can override using the
`.groups` argument.

# A tibble: 90 × 5
# Groups:   year [9]
   Prscrbr_Type                      year     n Supply_yr Supply_per_Provider_yr
   <chr>                            <int> <int>     <dbl>                  <dbl>
 1 Family Practice                   2013  2558     7992.                    3.1
 2 Psychiatry                        2013  2446     7248.                    3  
 3 Internal Medicine                 2013  1690     5724.                    3.4
 4 Psychiatry & Neurology            2013   398      946.                    2.4
 5 Anesthesiology                    2013   329      952.                    2.9
 6 General Practice                  2013   325     1098.                    3.4
 7 Physical Medicine and Rehabilit…  2013   310      935.                    3  
 8 Emergency Medicine                2013   273     1076.                    3.9
 9 Interventional Pain Management    2013   239      653.                    2.7
10 Addiction Medicine                2013   179      808.                    4.5
# ℹ 80 more rows
…
